<svg xmlns="http://www.w3.org/2000/svg" xmlns:xlink="http://www.w3.org/1999/xlink" width="864" height="1080" viewBox="0 0 864 1080">
    <defs>
        <linearGradient id="c" x1="41.141%" x2="105.666%" y1="50%" y2="50%">
            <stop offset="0%" stop-color="#F3F4F8"/>
            <stop offset="100%" stop-color="#FFF"/>
        </linearGradient>
        <path id="b" d="M162 720.2c0 307.593 250.274 557.8 558 557.8 307.677 0 558-250.207 558-557.8 0-307.894-250.323-558.2-558-558.2-307.726 0-558 250.306-558 558.2z"/>
        <filter id="a" width="112.9%" height="112.9%" x="-6.5%" y="-6.5%" filterUnits="objectBoundingBox">
            <feOffset in="SourceAlpha" result="shadowOffsetOuter1"/>
            <feGaussianBlur in="shadowOffsetOuter1" result="shadowBlurOuter1" stdDeviation="24"/>
            <feColorMatrix in="shadowBlurOuter1" values="0 0 0 0 0.847058824 0 0 0 0 0.870588235 0 0 0 0 0.917647059 0 0 0 1 0"/>
        </filter>
        <linearGradient id="d" x1="99.635%" x2="46.161%" y1="50%" y2="50%">
            <stop offset="0%" stop-color="#FFF"/>
            <stop offset="100%" stop-color="#FFF" stop-opacity="0"/>
        </linearGradient>
    </defs>
    <g fill="none" fill-rule="evenodd">
        <path fill="#FFF" fill-opacity=".201" stroke="#E9EAF4" stroke-width="1.2" d="M142.8-180c-397.066 0-720 322.976-720 720.257 0 396.896 322.934 719.743 720 719.743 397.002 0 720-322.847 720-719.743C862.8 142.976 539.802-180 142.8-180"/>
        <path fill="#FFF" fill-opacity=".598" stroke="#E7E9EF" stroke-width="1.2" d="M142.8-90c-347.433 0-630 282.604-630 630.225 0 347.284 282.567 629.775 630 629.775 347.377 0 630-282.491 630-629.775C772.8 192.604 490.177-90 142.8-90"/>
        <path stroke="#E6E8F1" stroke-dasharray="1.2,12" stroke-width="60" d="M142.8-18c-307.726 0-558 250.306-558 558.2 0 307.593 250.274 557.8 558 557.8 307.677 0 558-250.207 558-557.8 0-307.894-250.323-558.2-558-558.2"/>
        <path stroke="#E6E8F1" stroke-dasharray="1.2,12" stroke-linecap="round" stroke-width="2.4" d="M142.8-78c-340.815 0-618 277.22-618 618.22 0 340.67 277.185 617.78 618 617.78 340.76 0 618-277.11 618-617.78 0-341-277.24-618.22-618-618.22"/>
        <g transform="translate(-577.2 -180)">
            <use fill="#000" filter="url(#a)" xlink:href="#b"/>
            <use fill="url(#c)" xlink:href="#b"/>
        </g>
        <path fill="#F3F4F8" d="M-217.2 540.128C-217.2 738.576-55.733 900 142.8 900c198.501 0 360-161.424 360-359.872C502.8 341.488 341.301 180 142.8 180c-198.533 0-360 161.488-360 360.128z"/>
        <path fill="url(#d)" d="M720 408c-172.062 0-312 139.956-312 312.111C408 892.1 547.938 1032 720 1032c172.034 0 312-139.9 312-311.889C1032 547.956 892.034 408 720 408" transform="translate(-577.2 -180)"/>
    </g>
</svg>
