<svg xmlns="http://www.w3.org/2000/svg" width="75" height="70" viewBox="0 0 75 70">
    <g fill="#1E97E2" fill-rule="evenodd">
        <path d="M25.84 59.15C19.28 61.8 11.13 56.945 7.03 46.795c-4.101-10.15-1.611-19.302 4.95-21.953 6.562-2.65 14.71 2.203 18.811 12.353 4.101 10.15 1.611 19.302-4.95 21.953zm-4.715-8.072c3.108-1.256 4.076-6.114 2.163-10.85-1.914-4.737-5.985-7.559-9.093-6.303-3.108 1.256-4.077 6.114-2.163 10.85 1.914 4.737 5.985 7.559 9.093 6.303zm13.038 3.283c2.029-4.693 1.888-11.347-.87-18.176C30.405 29.04 25.696 24.29 20.815 22.7l23.551-9.515.011.027c5.776-1.77 13.002 3.376 16.43 11.858 3.426 8.482 1.802 17.204-3.582 19.943l.011.027-23.073 9.322z"/>
        <path fill-rule="nonzero" d="M4.178 48.16c-.694.28-1.418.107-1.618-.388-.2-.494.2-1.122.894-1.402l14.204-5.665c.694-.28 1.418-.106 1.617.388.2.495-.2 1.123-.894 1.403L4.178 48.16zM54.257 26.607c-.683.275-1.404.084-1.611-.428-.207-.512.179-1.15.862-1.427l16.07-6.493c.684-.276 1.405-.084 1.612.428.207.512-.18 1.15-.862 1.426l-16.071 6.494z"/>
    </g>
</svg>
