<svg xmlns="http://www.w3.org/2000/svg" width="64" height="64" viewBox="0 0 64 64">
    <g fill="#FFF" fill-rule="evenodd" opacity=".9">
        <path d="M28.62 19.538c-.079.715-.681 1.332-1.334 1.586-.369.143-.53-.451-.16-.594.366-.144.83-.582.877-.994.042-.39.659-.395.616.002m-1.811-6.974a21.085 21.085 0 0 1-.463-1.307l-.102.34s-.851 1.927-1.753 3.942a24.02 24.02 0 0 1-.66 1.383c-.056.13-.077.16-.124.247-.256.482-.459 1.007-.46 1.593a2.98 2.98 0 0 0 2.982 2.98 2.98 2.98 0 0 0 2.982-2.981c0-.66-.083-1.091-.414-1.804-.486-1.162-1.71-3.658-1.988-4.393M39.23 19.536c-.076.716-.679 1.335-1.331 1.589-.37.142-.531-.452-.164-.595.367-.144.834-.581.88-.994.043-.39.658-.395.616 0m-1.81-6.97c-.366-.963-.465-1.31-.465-1.31l-.1.34s-.852 1.927-1.754 3.944a20.898 20.898 0 0 1-.662 1.381c-.054.131-.075.162-.121.247-.255.484-.46 1.007-.46 1.594a2.98 2.98 0 0 0 2.98 2.98 2.98 2.98 0 0 0 2.983-2.98c0-.66-.081-1.091-.413-1.805-.486-1.16-1.711-3.658-1.988-4.391M34.345 13.65c-.09.83-.79 1.548-1.546 1.842-.432.168-.615-.523-.19-.691.425-.165.97-.672 1.02-1.15.049-.455.765-.46.716-.002m-2.101-8.09c-.423-1.113-.54-1.517-.54-1.517l-.116.393s-.988 2.238-2.035 4.579c-.37.833-.612 1.313-.766 1.603-.063.15-.089.186-.142.285-.297.56-.535 1.17-.535 1.85a3.46 3.46 0 0 0 6.921 0c.001-.766-.095-1.27-.48-2.097-.564-1.347-1.984-4.243-2.307-5.095M43.54 51.595c-6.753 6.752-17.74 6.751-24.49 0-6.755-6.754-6.754-17.74-.002-24.491 6.753-6.753 17.738-6.754 24.492 0 6.751 6.75 6.752 17.738 0 24.491zM19.315 27.371c-6.605 6.605-6.605 17.351 0 23.957 6.604 6.603 17.35 6.603 23.955-.002 6.604-6.604 6.604-17.35 0-23.954-6.605-6.605-17.35-6.605-23.955 0zm4.214 2.79c.29-.245.59-.475.897-.69a1.666 1.666 0 0 1-1.375-2.183c-.438.3-.864.626-1.274.979a1.664 1.664 0 0 1 1.752 1.895zm-1.424 1.424a1.668 1.668 0 0 1-1.895-1.751c-.352.41-.679.835-.978 1.273a1.672 1.672 0 0 1 2.185 1.373c.214-.307.443-.605.688-.895zm-1.697 2.643a1.67 1.67 0 0 1-2.284-1.202c-.231.484-.435.978-.61 1.48a1.666 1.666 0 0 1 2.463.77c.126-.354.27-.704.431-1.048zm-.948 2.988a1.666 1.666 0 0 1-2.519-.56 14.703 14.703 0 0 0-.205 1.575l.059-.063a1.666 1.666 0 0 1 2.517.18c.032-.379.08-.757.148-1.132zm-.147 3.132a1.654 1.654 0 0 1-1.337.67c-.492 0-.935-.215-1.24-.555.04.529.108 1.055.205 1.578a1.666 1.666 0 0 1 2.52-.56 12.11 12.11 0 0 1-.148-1.133zm.664 3.073a1.666 1.666 0 0 1-.367.556l-.001.001a1.666 1.666 0 0 1-2.096.212c.176.503.38.997.612 1.482a1.661 1.661 0 0 1 .8-1.112c.47-.271 1.02-.287 1.485-.09a11.958 11.958 0 0 1-.433-1.05zm1.44 2.792a1.67 1.67 0 0 1-2.185 1.378c.3.438.626.863.979 1.274a1.666 1.666 0 0 1 1.895-1.754c-.246-.29-.476-.59-.69-.898zm2.113 2.322a1.668 1.668 0 0 1-1.754 1.895c.41.353.836.68 1.275.98a1.657 1.657 0 0 1 .404-1.71c.268-.27.613-.43.972-.476a11.991 11.991 0 0 1-.897-.689zm2.644 1.697a1.647 1.647 0 0 1-.095 1.482 1.642 1.642 0 0 1-.264.348l-.001.001a1.66 1.66 0 0 1-.845.454c.484.231.979.435 1.481.61a1.662 1.662 0 0 1 .215-2.096c.16-.16.35-.284.555-.367-.354-.127-.703-.27-1.046-.432zm2.986.949a1.666 1.666 0 0 1-.56 2.519c.521.096 1.047.165 1.574.205a1.659 1.659 0 0 1-.55-1.24 1.654 1.654 0 0 1 .667-1.336c-.379-.032-.756-.081-1.131-.148zm3.131.148a1.67 1.67 0 0 1 .12 2.576c.527-.04 1.05-.109 1.57-.206a1.657 1.657 0 0 1-.854-1.055 1.675 1.675 0 0 1 .299-1.463c-.376.067-.755.117-1.135.148zm3.073-.664a1.67 1.67 0 0 1 .773 2.46c.5-.175.993-.378 1.476-.61a1.654 1.654 0 0 1-1.108-.8 1.67 1.67 0 0 1-.093-1.482c-.344.16-.693.305-1.048.432zm2.797-1.442a1.677 1.677 0 0 1 1.374 2.184c.437-.3.862-.625 1.271-.977a1.664 1.664 0 0 1-1.75-1.894c-.29.245-.589.474-.895.687zm2.318-2.111a1.666 1.666 0 0 1 1.894 1.75c.353-.409.678-.833.977-1.27a1.677 1.677 0 0 1-1.36-.139 1.653 1.653 0 0 1-.822-1.237c-.214.307-.443.606-.689.896zm1.698-2.645a1.666 1.666 0 0 1 2.282 1.203c.232-.482.435-.976.61-1.477a1.67 1.67 0 0 1-2.46-.773c-.127.354-.271.704-.432 1.047zm.948-2.985c.41-.32.952-.435 1.463-.299a1.644 1.644 0 0 1 1.055.857c.097-.521.166-1.046.206-1.572a1.657 1.657 0 0 1-1.239.55 1.67 1.67 0 0 1-1.337-.67c-.032.38-.081.758-.148 1.134zm.148-3.135a1.654 1.654 0 0 1 1.335-.668c.492 0 .935.214 1.242.555a14.702 14.702 0 0 0-.206-1.578 1.661 1.661 0 0 1-1.058.86 1.663 1.663 0 0 1-1.46-.3c.066.375.115.752.147 1.13zm-.665-3.072a1.676 1.676 0 0 1 1.116-.986 1.67 1.67 0 0 1 1.349.22c-.176-.504-.38-1-.612-1.485a1.663 1.663 0 0 1-.803 1.111 1.653 1.653 0 0 1-1.48.096c.16.342.304.69.43 1.044zm-1.44-2.793a1.667 1.667 0 0 1 2.187-1.375c-.3-.438-.627-.864-.98-1.274a1.662 1.662 0 0 1-.487 1.281 1.669 1.669 0 0 1-1.408.473c.246.29.475.588.688.895zm-2.114-2.32a1.668 1.668 0 0 1 1.755-1.896c-.41-.353-.837-.68-1.275-.98l.03.099a1.657 1.657 0 0 1-.434 1.612c-.268.27-.612.43-.971.476.307.213.606.443.895.688zm-2.64-1.696a1.669 1.669 0 0 1 1.203-2.285c-.486-.233-.981-.437-1.484-.613a1.67 1.67 0 0 1-.767 2.465c.354.127.704.271 1.047.433zm-2.99-.95a1.656 1.656 0 0 1-.297-1.462 1.66 1.66 0 0 1 .859-1.057 14.703 14.703 0 0 0-1.577-.206l.064.061c.316.316.49.734.489 1.18a1.66 1.66 0 0 1-.67 1.337c.38.031.757.08 1.132.147zm-3.131-.147a1.67 1.67 0 0 1-.118-2.578c-.527.04-1.052.109-1.572.206l.078.042a1.675 1.675 0 0 1 .478 2.477c.376-.067.754-.116 1.134-.147zm-3.074.664a1.667 1.667 0 0 1-.769-2.464c-.503.176-.998.38-1.483.613a1.666 1.666 0 0 1 1.204 2.283c.344-.161.694-.305 1.048-.432zm-4.413 2.792a1.29 1.29 0 0 0-.019-1.805 1.291 1.291 0 0 0-1.824 1.824 1.29 1.29 0 0 0 1.843-.019zm-1.89 2.44c.14-.282.173-.602.09-.908a1.29 1.29 0 1 0-.091.908zm-.066 12.052a1.294 1.294 0 0 0-2.003-.222 1.292 1.292 0 0 0 .578 2.158 1.284 1.284 0 0 0 1.247-.334 1.292 1.292 0 0 0 .178-1.602zm4.377 4.418a1.292 1.292 0 0 0-1.71.5 1.277 1.277 0 0 0-.128.98 1.292 1.292 0 0 0 2.155.58l.001-.002a1.28 1.28 0 0 0 .334-1.246 1.273 1.273 0 0 0-.652-.812zm12.003.074a1.292 1.292 0 1 0 1.633 1.984 1.294 1.294 0 0 0-.58-2.16 1.281 1.281 0 0 0-.902.09l-.15.086zm4.456-4.406a1.276 1.276 0 0 0-.107.937 1.29 1.29 0 1 0 .107-.936zm.06-12.004c.174.265.437.455.745.536a1.275 1.275 0 0 0 1.246-.334 1.288 1.288 0 0 0-.579-2.156 1.277 1.277 0 0 0-1.246.334 1.292 1.292 0 0 0-.165 1.62zm-1.904-2.51a1.291 1.291 0 0 0 2.156-.957c0-.346-.134-.669-.377-.91a1.277 1.277 0 0 0-.912-.38 1.293 1.293 0 0 0-.867 2.246zm-2.477-1.923a1.291 1.291 0 0 0 1.23-2.267 1.292 1.292 0 0 0-1.762.47 1.294 1.294 0 0 0 .532 1.797zm-12.022-.072a1.29 1.29 0 1 0 0 0zm2.166-4.043a15.081 15.081 0 0 1 3.623-.48 1.709 1.709 0 0 1 .325 0c1.215.012 2.43.172 3.614.478a1.66 1.66 0 0 1 .198.053 14.897 14.897 0 0 1 6.622 3.85 14.888 14.888 0 0 1 3.899 6.81c.308 1.187.468 2.405.48 3.624a1.68 1.68 0 0 1 0 .329 15.081 15.081 0 0 1-.53 3.8 14.9 14.9 0 0 1-3.852 6.63 14.895 14.895 0 0 1-6.61 3.846 1.653 1.653 0 0 1-.22.058 15.084 15.084 0 0 1-3.59.477 1.691 1.691 0 0 1-.346 0 15.08 15.08 0 0 1-3.595-.475 1.645 1.645 0 0 1-.221-.06 14.888 14.888 0 0 1-6.61-3.844 14.896 14.896 0 0 1-3.845-6.607 1.685 1.685 0 0 1-.061-.23 15.084 15.084 0 0 1-.475-3.592 1.68 1.68 0 0 1 0-.346c.014-1.21.173-2.417.477-3.594a1.685 1.685 0 0 1 .056-.212 14.892 14.892 0 0 1 3.848-6.614 14.897 14.897 0 0 1 6.813-3.9zm-9.992 10.14a1.292 1.292 0 0 0 1.827 1.822 1.29 1.29 0 0 0-1.827-1.822zm-.454 3.446a1.285 1.285 0 0 0-.378.911c.001.711.58 1.29 1.29 1.29.69 0 1.29-.6 1.29-1.289a1.28 1.28 0 0 0-.377-.912 1.284 1.284 0 0 0-.913-.378c-.344 0-.668.135-.912.378zm.456 3.445a1.295 1.295 0 0 0-.335 1.247 1.294 1.294 0 0 0 2.157.58c.325-.325.453-.803.334-1.249a1.28 1.28 0 0 0-.6-.781 1.282 1.282 0 0 0-1.556.203zm3.446 5.97a1.29 1.29 0 0 0 1.824 1.824 1.291 1.291 0 0 0-1.824-1.824zm5.967 3.447a1.292 1.292 0 0 0 .579 2.157 1.293 1.293 0 0 0 1.58-.91 1.28 1.28 0 0 0-.129-.98 1.294 1.294 0 0 0-2.03-.266zm3.448.454a1.287 1.287 0 0 0 0 1.824c.244.244.567.378.914.379.688-.001 1.288-.602 1.289-1.29a1.296 1.296 0 0 0-1.292-1.292 1.287 1.287 0 0 0-.91.38zm3.447-.456a1.293 1.293 0 0 0 .267 2.03 1.28 1.28 0 0 0 1.557-.204c.324-.325.452-.802.334-1.246a1.294 1.294 0 0 0-2.158-.58zm5.97-3.444a1.29 1.29 0 0 0-.001 1.824 1.29 1.29 0 0 0 1.824-1.825 1.29 1.29 0 0 0-1.823.001zm3.444-5.97a1.29 1.29 0 1 0 1.827 1.823 1.29 1.29 0 0 0-1.827-1.822zm.456-3.446a1.285 1.285 0 0 0-.38.91c.002.713.58 1.291 1.293 1.292.687 0 1.288-.601 1.29-1.29a1.296 1.296 0 0 0-1.293-1.292 1.29 1.29 0 0 0-.91.38zm-.454-3.448a1.294 1.294 0 0 0 .267 2.03 1.282 1.282 0 0 0 1.557-.205 1.289 1.289 0 1 0-1.823-1.825zm-9.417-9.414a1.29 1.29 0 1 0 1.827 1.823 1.29 1.29 0 0 0-1.827-1.823zm-3.446-.454a1.282 1.282 0 0 0-.378.91c0 .712.58 1.291 1.291 1.292.344 0 .668-.135.911-.378.244-.243.378-.568.378-.913a1.285 1.285 0 0 0-.378-.911 1.288 1.288 0 0 0-1.824 0zm-3.445.451a1.29 1.29 0 1 0 .577-.333 1.29 1.29 0 0 0-.577.333zm-3.88 5.54c-4.54 4.542-4.539 11.93.003 16.473 4.541 4.54 11.93 4.54 16.47 0 4.542-4.542 4.542-11.93.001-16.471-4.542-4.542-11.931-4.543-16.473-.001zM38.285 46.34c-3.855 3.854-10.126 3.854-13.98 0-3.856-3.855-3.856-10.127-.002-13.98 3.855-3.855 10.126-3.855 13.982 0 3.854 3.854 3.854 10.126 0 13.98zM24.57 32.627c-3.707 3.706-3.706 9.737.001 13.444 3.707 3.706 9.736 3.706 13.443 0 3.707-3.707 3.707-9.736 0-13.443-3.707-3.707-9.737-3.708-13.444-.001z"/>
    </g>
</svg>