<svg xmlns="http://www.w3.org/2000/svg" width="51" height="96" viewBox="0 0 51 96">
    <path fill="none" fill-rule="evenodd" stroke="#231916" stroke-width="1.136" d="M11.716.8v34.06h6.324V.8M50.6 46.485H30.863c-.985 0-3.461 0-4.059 2.585l-3.806 16.772H5.017c-2.438 0-3.617 1.942-3.617 3.458v26.3M8.555 1.48v60.713h6.94l5.44-20.581h4.69v-3.867l-7.584-10.29"/>
</svg>
