<svg xmlns="http://www.w3.org/2000/svg" width="41" height="40" viewBox="0 0 41 40">
    <path fill="#818CAA" fill-rule="evenodd" d="M15.565 2.55c-5.98 5.074-9.46 8.436-14.67 14.272-1.296 1.736-1.086 4.966 0 4.966h4.858v12.415c0 1.826.255 4.966 2.135 4.966h7.583V26.754h9.717v12.415h7.005c1.415 0 2.713-1.314 2.713-4.966V21.788h4.859c1.445 0 1.68-3.514 0-4.966-4.769-4.958-10.137-9.752-15.333-14.108-4.102-3.274-6.33-2.84-8.867-.164z"/>
</svg>
