<svg xmlns="http://www.w3.org/2000/svg" width="61" height="96" viewBox="0 0 61 96">
    <path fill="none" fill-rule="evenodd" stroke="#231916" stroke-width="1.2" d="M1.4 95.2V81.173c0-2.042 2.676-6.99 2.676-6.99s1.482-2.787 4.112-2.876h4.58c1.512 0 2.872.947 3.428 2.39l1.445 3.75c1.248 3.242 4.304 5.372 7.702 5.372h7.288c3.92 0 7.205-3.038 7.606-7.036 0 0 1.033-10.355 1.208-12.131.248-2.497 3.024-2.987 4.315-2.987H60.2M25.94.4v41.281c0 .228-.18.412-.4.412h-9.015a.407.407 0 0 1-.4-.412V.4m-3.068 0v45.832c0 .184.119.345.29.394l8.338 2.443a.412.412 0 0 1 .291.395v8.087a.413.413 0 0 1-.2.355l-8.519 5.06a.41.41 0 0 0-.2.355v3.996c0 .226.179.41.4.41h3.51a.41.41 0 0 0 .105-.014l6.275-1.765a4.129 4.129 0 0 1 3.184.4l7.486 4.31a.411.411 0 0 1 .205.357v1.38c0 .226.18.41.4.41h4.987c2.573 0 3.741-3.29 1.772-4.985l-11.263-9.69a.414.414 0 0 1-.143-.316v-6.508c0-.226.18-.41.4-.41h11.303c.222 0 .4-.184.4-.412v-5.59a.417.417 0 0 0-.2-.357L25.94 35.08"/>
</svg>
